Proyecto final/uP_tb.vcd
$date
	Sun Nov 22 15:54:22 2020
$end
$version
	Icarus Verilog
$end
$timescale
	1ps
$end
$scope module testbench $end
$var wire 4 ! data_bus [3:0] $end
$var wire 1 " z_flag $end
$var wire 8 # program_byte [7:0] $end
$var wire 1 $ phase $end
$var wire 4 % oprnd [3:0] $end
$var wire 4 & instr [3:0] $end
$var wire 1 ' c_flag $end
$var wire 12 ( address_RAM [11:0] $end
$var wire 4 ) accu [3:0] $end
$var wire 12 * PC [11:0] $end
$var wire 4 + FF_out [3:0] $end
$var reg 1 , clock $end
$var reg 4 - pushbuttons [3:0] $end
$var reg 1 . reset $end
$var integer 32 / immediateDelay [31:0] $end
$var integer 32 0 jumpDelay [31:0] $end
$var integer 32 1 memoryDelay [31:0] $end
$var integer 32 2 nota [31:0] $end
$scope module uPmodule $end
$var wire 1 , clock $end
$var wire 4 3 data_bus [3:0] $end
$var wire 4 4 pushbuttons [3:0] $end
$var wire 1 . reset $end
$var wire 1 5 zero $end
$var wire 1 " z_flag $end
$var wire 1 6 weRAM $end
$var wire 4 7 salida_ALU [3:0] $end
$var wire 8 8 program_byte [7:0] $end
$var wire 1 $ phase $end
$var wire 4 9 oprnd [3:0] $end
$var wire 1 : oeOprnd $end
$var wire 1 ; oeIN $end
$var wire 1 < oeALU $end
$var wire 1 = loadPC $end
$var wire 1 > loadOut $end
$var wire 1 ? loadFlags $end
$var wire 1 @ loadA $end
$var wire 4 A instr [3:0] $end
$var wire 1 B incPC $end
$var wire 7 C in_decode [6:0] $end
$var wire 1 D csRAM $end
$var wire 13 E control_signals [12:0] $end
$var wire 3 F comando_ALU [2:0] $end
$var wire 1 G carry $end
$var wire 1 ' c_flag $end
$var wire 12 H address_RAM [11:0] $end
$var wire 4 I accu [3:0] $end
$var wire 12 J PC [11:0] $end
$var wire 4 K FF_out [3:0] $end
$scope module ACCU $end
$var wire 1 @ En $end
$var wire 1 , clk $end
$var wire 1 . reset $end
$var wire 4 L D [3:0] $end
$var reg 4 M Q [3:0] $end
$upscope $end
$scope module ALU $end
$var wire 4 N A [3:0] $end
$var wire 4 O B [3:0] $end
$var wire 1 5 Zero $end
$var wire 3 P comando [2:0] $end
$var wire 4 Q Salida [3:0] $end
$var wire 1 G C $end
$var reg 5 R cbl [4:0] $end
$upscope $end
$scope module Busdriver1 $end
$var wire 1 : En $end
$var wire 4 S salida [3:0] $end
$var wire 4 T Entrada [3:0] $end
$upscope $end
$scope module Busdriver2 $end
$var wire 1 < En $end
$var wire 4 U Entrada [3:0] $end
$var wire 4 V salida [3:0] $end
$upscope $end
$scope module Decoder $end
$var wire 7 W Entrada [6:0] $end
$var reg 13 X Salida [12:0] $end
$upscope $end
$scope module Fetch $end
$var wire 1 Y En $end
$var wire 1 , clk $end
$var wire 1 . reset $end
$var wire 4 Z oprnd [3:0] $end
$var wire 4 [ instr [3:0] $end
$var wire 8 \ D [7:0] $end
$scope module b1 $end
$var wire 4 ] D [3:0] $end
$var wire 1 Y En $end
$var wire 1 , clk $end
$var wire 1 . reset $end
$var reg 4 ^ Q [3:0] $end
$upscope $end
$scope module b2 $end
$var wire 4 _ D [3:0] $end
$var wire 1 Y En $end
$var wire 1 , clk $end
$var wire 1 . reset $end
$var reg 4 ` Q [3:0] $end
$upscope $end
$upscope $end
$scope module Flags $end
$var wire 1 5 D $end
$var wire 1 G D1 $end
$var wire 1 ? En $end
$var wire 1 , clk $end
$var wire 1 . reset $end
$var wire 1 " zero $end
$var wire 1 ' carry $end
$scope module C $end
$var wire 1 G D $end
$var wire 1 ? En $end
$var wire 1 , clk $end
$var wire 1 . reset $end
$var reg 1 ' Q $end
$upscope $end
$scope module Z $end
$var wire 1 5 D $end
$var wire 1 ? En $end
$var wire 1 , clk $end
$var wire 1 . reset $end
$var reg 1 " Q $end
$upscope $end
$upscope $end
$scope module Inputs $end
$var wire 1 ; En $end
$var wire 4 a Entrada [3:0] $end
$var wire 4 b salida [3:0] $end
$upscope $end
$scope module Ouputs $end
$var wire 4 c D [3:0] $end
$var wire 1 > En $end
$var wire 1 , clk $end
$var wire 1 . reset $end
$var reg 4 d Q [3:0] $end
$upscope $end
$scope module Pc $end
$var wire 1 B En $end
$var wire 1 , clk $end
$var wire 1 = load $end
$var wire 12 e load2 [11:0] $end
$var wire 1 . reset $end
$var reg 12 f q [11:0] $end
$upscope $end
$scope module Phase $end
$var wire 1 g clb $end
$var wire 1 , clk $end
$var wire 1 . reset $end
$var wire 1 $ Q $end
$scope module c $end
$var wire 1 g D $end
$var wire 1 , clk $end
$var wire 1 . reset $end
$var reg 1 $ Q $end
$upscope $end
$upscope $end
$scope module ProgramROM $end
$var wire 12 h localidad [11:0] $end
$var wire 8 i respuesta [7:0] $end
$upscope $end
$scope module RAM $end
$var wire 12 j address_RAM [11:0] $end
$var wire 1 D cs $end
$var wire 4 k data [3:0] $end
$var wire 1 6 we $end
$var reg 4 l data_out [3:0] $end
$scope begin MEM_READ $end
$upscope $end
$scope begin MEM_WRITE $end
$upscope $end
$upscope $end
$upscope $end
$upscope $end
$enddefinitions $end
#0
$dumpvars
bx l
bx k
bx j
bx i
bx h
xg
bx f
bx e
bx d
bx c
bx b
b110 a
bx `
bx _
bx ^
bx ]
bx \
bx [
bx Z
xY
bx X
bx W
bx V
bx U
bx T
bx S
bx R
bx Q
bx P
bx O
bx N
bx M
bx L
bx K
bx J
bx I
bx H
xG
bx F
bx E
xD
bx C
xB
bx A
x@
x?
x>
x=
x<
x;
x:
bx 9
bx 8
bx 7
x6
x5
b110 4
bx 3
b0 2
b100010100 1
b1010010000 0
b10000 /
0.
b110 -
0,
bx +
bx *
bx )
bx (
x'
bx &
bx %
x$
bx #
x"
bx !
$end
#2
15
b0 !
b0 3
b0 O
b0 S
b0 V
b0 b
b0 c
b0 k
b0 7
b0 L
b0 Q
b0 U
0G
0>
0:
0;
1<
06
0D
b0 F
b0 P
0?
0@
0=
1B
b1111 _
b100 ]
b0 R
1g
1Y
b1000000001000 E
b1000000001000 X
b1001111 #
b1001111 8
b1001111 \
b1001111 i
b0 *
b0 J
b0 f
b0 h
b0 &
b0 A
b0 [
b0 ^
b1001111 (
b1001111 H
b1001111 e
b1001111 j
b0 %
b0 9
b0 T
b0 Z
b0 `
b0 )
b0 I
b0 M
b0 N
b0 +
b0 K
b0 d
0$
0"
b0 C
b0 W
0'
1.
#3
0.
#5
05
b1111 7
b1111 L
b1111 Q
b1111 U
b1111 R
1:
b10 F
b10 P
1?
1@
b1111 !
b1111 3
b1111 O
b1111 S
b1111 V
b1111 b
b1111 c
b1111 k
0<
0B
0g
0Y
b11010000010 E
b11010000010 X
b1101 ]
1$
b1111 %
b1111 9
b1111 T
b1111 Z
b1111 `
b100001 C
b100001 W
b100 &
b100 A
b100 [
b100 ^
b111111011111 (
b111111011111 H
b111111011111 e
b111111011111 j
b11011111 #
b11011111 8
b11011111 \
b11011111 i
b1 *
b1 J
b1 f
b1 h
1,
#10
0,
#15
1<
1B
b1111 !
b1111 3
b1111 O
b1111 S
b1111 V
b1111 b
b1111 c
b1111 k
0:
b0 F
b0 P
0?
0@
1g
b1000000001000 E
b1000000001000 X
1Y
b1111 )
b1111 I
b1111 M
b1111 N
b100000 C
b100000 W
0$
1,
#16
b1000110 2
#20
0,
#25
1>
b1111 !
b1111 3
b1111 O
b1111 S
b1111 V
b1111 b
b1111 c
b1111 k
1<
0B
0g
0Y
b1001 E
b1001 X
b1 _
b101 ]
1$
b1101001 C
b1101001 W
b1101 &
b1101 A
b1101 [
b1101 ^
b111101010001 (
b111101010001 H
b111101010001 e
b111101010001 j
b1010001 #
b1010001 8
b1010001 \
b1010001 i
b10 *
b10 J
b10 f
b10 h
1,
#30
0,
#35
1B
b1111 !
b1111 3
b1111 O
b1111 S
b1111 V
b1111 b
b1111 c
b1111 k
0>
1<
1g
b1000000001000 E
b1000000001000 X
1Y
b1111 +
b1111 K
b1111 d
b1101000 C
b1101000 W
0$
1,
#36
b1100111 2
#40
0,
#45
b110 7
b110 L
b110 Q
b110 U
b110 R
1;
b10 F
b10 P
1?
1@
b110 !
b110 3
b110 O
b110 S
b110 V
b110 b
b110 c
b110 k
0<
0B
0g
0Y
b11010000100 E
b11010000100 X
b0 _
b100 ]
1$
b1 %
b1 9
b1 T
b1 Z
b1 `
b101001 C
b101001 W
b101 &
b101 A
b101 [
b101 ^
b101000000 (
b101000000 H
b101000000 e
b101000000 j
b1000000 #
b1000000 8
b1000000 \
b1000000 i
b11 *
b11 J
b11 f
b11 h
1,
#50
0,
#55
1<
1B
b110 !
b110 3
b110 O
b110 S
b110 V
b110 b
b110 c
b110 k
0;
b0 F
b0 P
0?
0@
1g
b1000000001000 E
b1000000001000 X
1Y
b110 )
b110 I
b110 M
b110 N
b101000 C
b101000 W
0$
1,
#56
b10001000 2
#60
0,
#65
15
b0 7
b0 L
b0 Q
b0 U
b0 R
1:
b10 F
b10 P
1?
1@
b0 !
b0 3
b0 O
b0 S
b0 V
b0 b
b0 c
b0 k
0<
0B
0g
0Y
b11010000010 E
b11010000010 X
b1111 _
1$
b0 %
b0 9
b0 T
b0 Z
b0 `
b100001 C
b100001 W
b100 &
b100 A
b100 [
b100 ^
b1001111 (
b1001111 H
b1001111 e
b1001111 j
b1001111 #
b1001111 8
b1001111 \
b1001111 i
b100 *
b100 J
b100 f
b100 h
1,
#70
0,
#75
1<
1B
b0 !
b0 3
b0 O
b0 S
b0 V
b0 b
b0 c
b0 k
0:
b0 F
b0 P
0?
0@
1g
1Y
b1000000001000 E
b1000000001000 X
b0 )
b0 I
b0 M
b0 N
0$
b100010 C
b100010 W
1"
1,
#80
0,
#85
05
b1111 7
b1111 L
b1111 Q
b1111 U
b1111 R
1:
b10 F
b10 P
1?
1@
b1111 !
b1111 3
b1111 O
b1111 S
b1111 V
b1111 b
b1111 c
b1111 k
0<
0B
0g
b11010000010 E
b11010000010 X
0Y
b1010 _
b1010 ]
b100011 C
b100011 W
1$
b1111 %
b1111 9
b1111 T
b1111 Z
b1111 `
b111110101010 (
b111110101010 H
b111110101010 e
b111110101010 j
b10101010 #
b10101010 8
b10101010 \
b10101010 i
b101 *
b101 J
b101 f
b101 h
1,
#90
0,
#95
1<
1B
b1111 !
b1111 3
b1111 O
b1111 S
b1111 V
b1111 b
b1111 c
b1111 k
0:
b0 F
b0 P
0?
0@
1g
1Y
b1000000001000 E
b1000000001000 X
b1111 )
b1111 I
b1111 M
b1111 N
0$
b100000 C
b100000 W
0"
1,
#100
0,
#105
b1001 7
b1001 L
b1001 Q
b1001 U
1G
b11001 R
1:
b11 F
b11 P
1?
1@
b1010 !
b1010 3
b1010 O
b1010 S
b1010 V
b1010 b
b1010 c
b1010 k
0<
0B
0g
0Y
b11011000010 E
b11011000010 X
b1000 _
b10 ]
1$
b1010 %
b1010 9
b1010 T
b1010 Z
b1010 `
b1010001 C
b1010001 W
b1010 &
b1010 A
b1010 [
b1010 ^
b101000101000 (
b101000101000 H
b101000101000 e
b101000101000 j
b101000 #
b101000 8
b101000 \
b101000 i
b110 *
b110 J
b110 f
b110 h
1,
#110
0,
#115
1<
1B
0G
b1001 !
b1001 3
b1001 O
b1001 S
b1001 V
b1001 b
b1001 c
b1001 k
b1001 7
b1001 L
b1001 Q
b1001 U
0:
b0 F
b0 P
0?
0@
b1001 R
1g
1Y
b1000000001000 E
b1000000001000 X
b1001 )
b1001 I
b1001 M
b1001 N
0$
b1010100 C
b1010100 W
1'
1,
#116
b10101001 2
#120
0,
#125
b1 7
b1 L
b1 Q
b1 U
0G
b1 R
1:
b1 F
b1 P
1?
b1000 !
b1000 3
b1000 O
b1000 S
b1000 V
b1000 b
b1000 c
b1000 k
0<
0B
0g
0Y
b1001000010 E
b1001000010 X
b1010 _
b100 ]
1$
b1000 %
b1000 9
b1000 T
b1000 Z
b1000 `
b10101 C
b10101 W
b10 &
b10 A
b10 [
b10 ^
b100001001010 (
b100001001010 H
b100001001010 e
b100001001010 j
b1001010 #
b1001010 8
b1001010 \
b1001010 i
b111 *
b111 J
b111 f
b111 h
1,
#130
0,
#135
1<
1B
b1001 7
b1001 L
b1001 Q
b1001 U
b1001 !
b1001 3
b1001 O
b1001 S
b1001 V
b1001 b
b1001 c
b1001 k
b1001 R
0:
b0 F
b0 P
0?
1g
1Y
b1000000001000 E
b1000000001000 X
0$
b10000 C
b10000 W
0'
1,
#136
b11001010 2
#140
0,
#145
b1010 7
b1010 L
b1010 Q
b1010 U
b1010 R
1:
b10 F
b10 P
1?
1@
b1010 !
b1010 3
b1010 O
b1010 S
b1010 V
b1010 b
b1010 c
b1010 k
0<
0B
0g
0Y
b11010000010 E
b11010000010 X
b1100 _
b10 ]
1$
b1010 %
b1010 9
b1010 T
b1010 Z
b1010 `
b100001 C
b100001 W
b100 &
b100 A
b100 [
b100 ^
b101000101100 (
b101000101100 H
b101000101100 e
b101000101100 j
b101100 #
b101100 8
b101100 \
b101100 i
b1000 *
b1000 J
b1000 f
b1000 h
1,
#150
0,
#155
1<
1B
b1010 !
b1010 3
b1010 O
b1010 S
b1010 V
b1010 b
b1010 c
b1010 k
0:
b0 F
b0 P
0?
0@
1g
b1000000001000 E
b1000000001000 X
1Y
b1010 )
b1010 I
b1010 M
b1010 N
b100000 C
b100000 W
0$
1,
#160
0,
#165
b1110 7
b1110 L
b1110 Q
b1110 U
1G
b11110 R
1:
b1 F
b1 P
1?
b1100 !
b1100 3
b1100 O
b1100 S
b1100 V
b1100 b
b1100 c
b1100 k
0<
0B
0g
0Y
b1001000010 E
b1001000010 X
b1 _
b1010 ]
1$
b1100 %
b1100 9
b1100 T
b1100 Z
b1100 `
b10001 C
b10001 W
b10 &
b10 A
b10 [
b10 ^
b110010100001 (
b110010100001 H
b110010100001 e
b110010100001 j
b10100001 #
b10100001 8
b10100001 \
b10100001 i
b1001 *
b1001 J
b1001 f
b1001 h
1,
#170
0,
#175
1<
1B
b1010 7
b1010 L
b1010 Q
b1010 U
0G
b1010 !
b1010 3
b1010 O
b1010 S
b1010 V
b1010 b
b1010 c
b1010 k
b1010 R
0:
b0 F
b0 P
0?
1g
1Y
b1000000001000 E
b1000000001000 X
0$
b10100 C
b10100 W
1'
1,
#176
b11101011 2
#180
0,
#185
b1011 7
b1011 L
b1011 Q
b1011 U
0G
b1011 R
1:
b11 F
b11 P
1?
1@
b1 !
b1 3
b1 O
b1 S
b1 V
b1 b
b1 c
b1 k
0<
0B
0g
0Y
b11011000010 E
b11011000010 X
b1011 _
b1110 ]
1$
b1 %
b1 9
b1 T
b1 Z
b1 `
b1010101 C
b1010101 W
b1010 &
b1010 A
b1010 [
b1010 ^
b111101011 (
b111101011 H
b111101011 e
b111101011 j
b11101011 #
b11101011 8
b11101011 \
b11101011 i
b1010 *
b1010 J
b1010 f
b1010 h
1,
#190
0,
#195
1<
1B
b1011 !
b1011 3
b1011 O
b1011 S
b1011 V
b1011 b
b1011 c
b1011 k
b1011 7
b1011 L
b1011 Q
b1011 U
0:
b0 F
b0 P
0?
0@
b1011 R
1g
1Y
b1000000001000 E
b1000000001000 X
b1011 )
b1011 I
b1011 M
b1011 N
0$
b1010000 C
b1010000 W
0'
1,
#196
b100001100 2
#200
0,
#205
b100 7
b100 L
b100 Q
b100 U
b100 R
1:
b100 F
b100 P
1?
1@
b1011 !
b1011 3
b1011 O
b1011 S
b1011 V
b1011 b
b1011 c
b1011 k
0<
0B
0g
0Y
b11100000010 E
b11100000010 X
b0 _
b1101 ]
1$
b1011 %
b1011 9
b1011 T
b1011 Z
b1011 `
b1110001 C
b1110001 W
b1110 &
b1110 A
b1110 [
b1110 ^
b101111010000 (
b101111010000 H
b101111010000 e
b101111010000 j
b11010000 #
b11010000 8
b11010000 \
b11010000 i
b1011 *
b1011 J
b1011 f
b1011 h
1,
#210
0,
#215
1<
1B
b100 !
b100 3
b100 O
b100 S
b100 V
b100 b
b100 c
b100 k
b100 7
b100 L
b100 Q
b100 U
0:
b0 F
b0 P
0?
0@
b100 R
1g
b1000000001000 E
b1000000001000 X
1Y
b100 )
b100 I
b100 M
b100 N
b1110000 C
b1110000 W
0$
1,
#216
b101001110 2
#220
0,
#225
1>
b100 !
b100 3
b100 O
b100 S
b100 V
b100 b
b100 c
b100 k
1<
0B
0g
0Y
b1001 E
b1001 X
b101 ]
1$
b0 %
b0 9
b0 T
b0 Z
b0 `
b1101001 C
b1101001 W
b1101 &
b1101 A
b1101 [
b1101 ^
b1010000 (
b1010000 H
b1010000 e
b1010000 j
b1010000 #
b1010000 8
b1010000 \
b1010000 i
b1100 *
b1100 J
b1100 f
b1100 h
1,
#230
0,
#235
1B
b100 !
b100 3
b100 O
b100 S
b100 V
b100 b
b100 c
b100 k
0>
1<
1g
b1000000001000 E
b1000000001000 X
1Y
b100 +
b100 K
b100 d
b1101000 C
b1101000 W
0$
1,
#236
b1110 -
b1110 4
b1110 a
b101101111 2
#240
0,
#245
b1110 7
b1110 L
b1110 Q
b1110 U
b1110 R
1;
b10 F
b10 P
1?
1@
b1110 !
b1110 3
b1110 O
b1110 S
b1110 V
b1110 b
b1110 c
b1110 k
0<
0B
0g
0Y
b11010000100 E
b11010000100 X
b111 ]
1$
b101001 C
b101001 W
b101 &
b101 A
b101 [
b101 ^
b1110000 (
b1110000 H
b1110000 e
b1110000 j
b1110000 #
b1110000 8
b1110000 \
b1110000 i
b1101 *
b1101 J
b1101 f
b1101 h
1,
#250
0,
#255
1<
1B
b1110 !
b1110 3
b1110 O
b1110 S
b1110 V
b1110 b
b1110 c
b1110 k
0;
b0 F
b0 P
0?
0@
1g
b1000000001000 E
b1000000001000 X
1Y
b1110 )
b1110 I
b1110 M
b1110 N
b101000 C
b101000 W
0$
1,
#256
b110010000 2
#260
0,
#265
16
1D
b1110 !
b1110 3
b1110 O
b1110 S
b1110 V
b1110 b
b1110 c
b1110 k
1<
1B
0g
0Y
b1000000111000 E
b1000000111000 X
b0 ]
1$
b111001 C
b111001 W
b111 &
b111 A
b111 [
b111 ^
b0 (
b0 H
b0 e
b0 j
b0 #
b0 8
b0 \
b0 i
b1110 *
b1110 J
b1110 f
b1110 h
1,
#270
0,
#275
b1110 !
b1110 3
b1110 O
b1110 S
b1110 V
b1110 b
b1110 c
b1110 k
1<
06
0D
1B
b1111 _
b100 ]
1g
b1000000001000 E
b1000000001000 X
1Y
b1001111 (
b1001111 H
b1001111 e
b1001111 j
b1001111 #
b1001111 8
b1001111 \
b1001111 i
b1111 *
b1111 J
b1111 f
b1111 h
b111000 C
b111000 W
0$
1,
#280
0,
#285
b1111 7
b1111 L
b1111 Q
b1111 U
b1111 R
1:
b10 F
b10 P
1?
1@
b1111 !
b1111 3
b1111 O
b1111 S
b1111 V
b1111 b
b1111 c
b1111 k
0<
0B
0g
0Y
b11010000010 E
b11010000010 X
b1 _
b111 ]
1$
b1111 %
b1111 9
b1111 T
b1111 Z
b1111 `
b100001 C
b100001 W
b100 &
b100 A
b100 [
b100 ^
b111101110001 (
b111101110001 H
b111101110001 e
b111101110001 j
b1110001 #
b1110001 8
b1110001 \
b1110001 i
b10000 *
b10000 J
b10000 f
b10000 h
1,
#290
0,
#295
1<
1B
b1111 !
b1111 3
b1111 O
b1111 S
b1111 V
b1111 b
b1111 c
b1111 k
0:
b0 F
b0 P
0?
0@
1g
b1000000001000 E
b1000000001000 X
1Y
b1111 )
b1111 I
b1111 M
b1111 N
b100000 C
b100000 W
0$
1,
#300
0,
#305
16
1D
b1111 !
b1111 3
b1111 O
b1111 S
b1111 V
b1111 b
b1111 c
b1111 k
1<
1B
0g
0Y
b1000000111000 E
b1000000111000 X
b1 ]
1$
b1 %
b1 9
b1 T
b1 Z
b1 `
b111001 C
b111001 W
b111 &
b111 A
b111 [
b111 ^
b100010001 (
b100010001 H
b100010001 e
b100010001 j
b10001 #
b10001 8
b10001 \
b10001 i
b10001 *
b10001 J
b10001 f
b10001 h
1,
#310
0,
#315
b1111 !
b1111 3
b1111 O
b1111 S
b1111 V
b1111 b
b1111 c
b1111 k
1<
06
0D
1B
b1010 _
b100 ]
1g
b1000000001000 E
b1000000001000 X
1Y
b101001010 (
b101001010 H
b101001010 e
b101001010 j
b1001010 #
b1001010 8
b1001010 \
b1001010 i
b10010 *
b10010 J
b10010 f
b10010 h
b111000 C
b111000 W
0$
1,
#320
0,
#325
b1010 7
b1010 L
b1010 Q
b1010 U
b1010 R
1:
b10 F
b10 P
1?
1@
b1010 !
b1010 3
b1010 O
b1010 S
b1010 V
b1010 b
b1010 c
b1010 k
0<
0B
0g
0Y
b11010000010 E
b11010000010 X
b10 _
b111 ]
1$
b1010 %
b1010 9
b1010 T
b1010 Z
b1010 `
b100001 C
b100001 W
b100 &
b100 A
b100 [
b100 ^
b101001110010 (
b101001110010 H
b101001110010 e
b101001110010 j
b1110010 #
b1110010 8
b1110010 \
b1110010 i
b10011 *
b10011 J
b10011 f
b10011 h
1,
#330
0,
#335
1<
1B
b1010 !
b1010 3
b1010 O
b1010 S
b1010 V
b1010 b
b1010 c
b1010 k
0:
b0 F
b0 P
0?
0@
1g
b1000000001000 E
b1000000001000 X
1Y
b1010 )
b1010 I
b1010 M
b1010 N
b100000 C
b100000 W
0$
1,
#340
0,
#345
16
1D
b1010 !
b1010 3
b1010 O
b1010 S
b1010 V
b1010 b
b1010 c
b1010 k
1<
1B
0g
0Y
b1000000111000 E
b1000000111000 X
b10 ]
1$
b10 %
b10 9
b10 T
b10 Z
b10 `
b111001 C
b111001 W
b111 &
b111 A
b111 [
b111 ^
b1000100010 (
b1000100010 H
b1000100010 e
b1000100010 j
b100010 #
b100010 8
b100010 \
b100010 i
b10100 *
b10100 J
b10100 f
b10100 h
1,
#350
0,
#355
b1010 !
b1010 3
b1010 O
b1010 S
b1010 V
b1010 b
b1010 c
b1010 k
1<
06
0D
1B
b1 _
b100 ]
1g
b1000000001000 E
b1000000001000 X
1Y
b1001000001 (
b1001000001 H
b1001000001 e
b1001000001 j
b1000001 #
b1000001 8
b1000001 \
b1000001 i
b10101 *
b10101 J
b10101 f
b10101 h
b111000 C
b111000 W
0$
1,
#360
0,
#365
b1 7
b1 L
b1 Q
b1 U
b1 R
1:
b10 F
b10 P
1?
1@
b1 !
b1 3
b1 O
b1 S
b1 V
b1 b
b1 c
b1 k
0<
0B
0g
0Y
b11010000010 E
b11010000010 X
b11 _
b111 ]
1$
b1 %
b1 9
b1 T
b1 Z
b1 `
b100001 C
b100001 W
b100 &
b100 A
b100 [
b100 ^
b101110011 (
b101110011 H
b101110011 e
b101110011 j
b1110011 #
b1110011 8
b1110011 \
b1110011 i
b10110 *
b10110 J
b10110 f
b10110 h
1,
#370
0,
#375
1<
1B
b1 !
b1 3
b1 O
b1 S
b1 V
b1 b
b1 c
b1 k
0:
b0 F
b0 P
0?
0@
1g
b1000000001000 E
b1000000001000 X
1Y
b1 )
b1 I
b1 M
b1 N
b100000 C
b100000 W
0$
1,
#380
0,
#385
16
1D
b1 !
b1 3
b1 O
b1 S
b1 V
b1 b
b1 c
b1 k
1<
1B
0g
0Y
b1000000111000 E
b1000000111000 X
b11 ]
1$
b11 %
b11 9
b11 T
b11 Z
b11 `
b111001 C
b111001 W
b111 &
b111 A
b111 [
b111 ^
b1100110011 (
b1100110011 H
b1100110011 e
b1100110011 j
b110011 #
b110011 8
b110011 \
b110011 i
b10111 *
b10111 J
b10111 f
b10111 h
1,
#390
0,
#395
b1 !
b1 3
b1 O
b1 S
b1 V
b1 b
b1 c
b1 k
1<
06
0D
1B
b0 _
b110 ]
1g
b1000000001000 E
b1000000001000 X
1Y
b1101100000 (
b1101100000 H
b1101100000 e
b1101100000 j
b1100000 #
b1100000 8
b1100000 \
b1100000 i
b11000 *
b11000 J
b11000 f
b11000 h
b111000 C
b111000 W
0$
1,
#400
0,
#405
05
b1110 7
b1110 L
b1110 Q
b1110 U
b1110 l
b1110 R
1D
b10 F
b10 P
1?
1@
b1110 !
b1110 3
b1110 O
b1110 S
b1110 V
b1110 b
b1110 c
b1110 k
0<
1B
0g
0Y
b1011010100000 E
b1011010100000 X
b0 ]
1$
b0 %
b0 9
b0 T
b0 Z
b0 `
b110001 C
b110001 W
b110 &
b110 A
b110 [
b110 ^
b0 (
b0 H
b0 e
b0 j
b0 #
b0 8
b0 \
b0 i
b11001 *
b11001 J
b11001 f
b11001 h
1,
#410
0,
#415
1<
b1110 !
b1110 3
b1110 O
b1110 S
b1110 V
b1110 b
b1110 c
b1110 k
0D
b0 F
b0 P
0?
0@
1B
b1 _
b110 ]
bx l
1g
b1000000001000 E
b1000000001000 X
1Y
b1100001 (
b1100001 H
b1100001 e
b1100001 j
b1100001 #
b1100001 8
b1100001 \
b1100001 i
b11010 *
b11010 J
b11010 f
b11010 h
b1110 )
b1110 I
b1110 M
b1110 N
b110000 C
b110000 W
0$
1,
#420
0,
#425
b1111 7
b1111 L
b1111 Q
b1111 U
b1111 l
b1111 R
1D
b10 F
b10 P
1?
1@
b1111 !
b1111 3
b1111 O
b1111 S
b1111 V
b1111 b
b1111 c
b1111 k
0<
1B
0g
b1011010100000 E
b1011010100000 X
0Y
b1 ]
b110001 C
b110001 W
1$
b1 %
b1 9
b1 T
b1 Z
b1 `
b100010001 (
b100010001 H
b100010001 e
b100010001 j
b10001 #
b10001 8
b10001 \
b10001 i
b11011 *
b11011 J
b11011 f
b11011 h
1,
#430
0,
#435
1<
b1111 !
b1111 3
b1111 O
b1111 S
b1111 V
b1111 b
b1111 c
b1111 k
0D
b0 F
b0 P
0?
0@
1B
b10 _
b110 ]
bx l
1g
b1000000001000 E
b1000000001000 X
1Y
b101100010 (
b101100010 H
b101100010 e
b101100010 j
b1100010 #
b1100010 8
b1100010 \
b1100010 i
b11100 *
b11100 J
b11100 f
b11100 h
b1111 )
b1111 I
b1111 M
b1111 N
b110000 C
b110000 W
0$
1,
#440
0,
#445
05
b1010 7
b1010 L
b1010 Q
b1010 U
b1010 l
b1010 R
1D
b10 F
b10 P
1?
1@
b1010 !
b1010 3
b1010 O
b1010 S
b1010 V
b1010 b
b1010 c
b1010 k
0<
1B
0g
b1011010100000 E
b1011010100000 X
0Y
b10 ]
b110001 C
b110001 W
1$
b10 %
b10 9
b10 T
b10 Z
b10 `
b1000100010 (
b1000100010 H
b1000100010 e
b1000100010 j
b100010 #
b100010 8
b100010 \
b100010 i
b11101 *
b11101 J
b11101 f
b11101 h
1,
#450
0,
#455
1<
b1010 !
b1010 3
b1010 O
b1010 S
b1010 V
b1010 b
b1010 c
b1010 k
0D
b0 F
b0 P
0?
0@
1B
b11 _
b110 ]
bx l
1g
b1000000001000 E
b1000000001000 X
1Y
b1001100011 (
b1001100011 H
b1001100011 e
b1001100011 j
b1100011 #
b1100011 8
b1100011 \
b1100011 i
b11110 *
b11110 J
b11110 f
b11110 h
b1010 )
b1010 I
b1010 M
b1010 N
b110000 C
b110000 W
0$
1,
#460
0,
#465
b1 7
b1 L
b1 Q
b1 U
b1 l
b1 R
1D
b10 F
b10 P
1?
1@
b1 !
b1 3
b1 O
b1 S
b1 V
b1 b
b1 c
b1 k
0<
1B
0g
b1011010100000 E
b1011010100000 X
0Y
b11 ]
b110001 C
b110001 W
1$
b11 %
b11 9
b11 T
b11 Z
b11 `
b1100110011 (
b1100110011 H
b1100110011 e
b1100110011 j
b110011 #
b110011 8
b110011 \
b110011 i
b11111 *
b11111 J
b11111 f
b11111 h
1,
#470
0,
#475
1<
b1 !
b1 3
b1 O
b1 S
b1 V
b1 b
b1 c
b1 k
0D
b0 F
b0 P
0?
0@
1B
b1010 _
b100 ]
bx l
1g
b1000000001000 E
b1000000001000 X
1Y
b1101001010 (
b1101001010 H
b1101001010 e
b1101001010 j
b1001010 #
b1001010 8
b1001010 \
b1001010 i
b100000 *
b100000 J
b100000 f
b100000 h
b1 )
b1 I
b1 M
b1 N
b110000 C
b110000 W
0$
1,
#476
b111100000 2
#480
0,
#485
05
b1010 7
b1010 L
b1010 Q
b1010 U
b1010 R
1:
b10 F
b10 P
1?
1@
b1010 !
b1010 3
b1010 O
b1010 S
b1010 V
b1010 b
b1010 c
b1010 k
0<
0B
0g
0Y
b11010000010 E
b11010000010 X
b10 _
b1111 ]
1$
b1010 %
b1010 9
b1010 T
b1010 Z
b1010 `
b100001 C
b100001 W
b100 &
b100 A
b100 [
b100 ^
b101011110010 (
b101011110010 H
b101011110010 e
b101011110010 j
b11110010 #
b11110010 8
b11110010 \
b11110010 i
b100001 *
b100001 J
b100001 f
b100001 h
1,
#490
0,
#495
1<
1B
b1010 !
b1010 3
b1010 O
b1010 S
b1010 V
b1010 b
b1010 c
b1010 k
0:
b0 F
b0 P
0?
0@
1g
b1000000001000 E
b1000000001000 X
1Y
b1010 )
b1010 I
b1010 M
b1010 N
b100000 C
b100000 W
0$
1,
#500
0,
#505
b101 7
b101 L
b101 Q
b101 U
b1010 l
b101 R
1D
b100 F
b100 P
1?
1@
b1010 !
b1010 3
b1010 O
b1010 S
b1010 V
b1010 b
b1010 c
b1010 k
0<
1B
0g
0Y
b1011100100000 E
b1011100100000 X
b10 ]
1$
b10 %
b10 9
b10 T
b10 Z
b10 `
b1111001 C
b1111001 W
b1111 &
b1111 A
b1111 [
b1111 ^
b1000100010 (
b1000100010 H
b1000100010 e
b1000100010 j
b100010 #
b100010 8
b100010 \
b100010 i
b100010 *
b100010 J
b100010 f
b100010 h
1,
#510
0,
